VertexlitGeneric
{
	$basetexture models/stations/pl_pobedy/pl_pobedy_main3_3
	$bumpmap models/stations/pl_pobedy/pl_pobedy_main3_1_n
	$phong 1
	$phongexponent 600
	$phongboost 0.7
	$phongfresnelranges "[1 1 1]"
	$envmap env_cubemap
	$normalmapalphaenvmapmask 1
	$envmaptint "[0.05 0.05 0.05]"
	$selfillum 1
	$selfillummask models/stations/pl_pobedy/pl_pobedy_main3_si
}
