VertexlitGeneric
{
	$basetexture models/rails/rails4
	$bumpmap models/rails/rails4_n
	$phong 1
	$phongexponent 25
	$phongboost	15
	$phongfresnelranges	"[0.05 1 0.05]"
	$envmap "env_cubemap"
	$normalmapalphaenvmapmask 1
	$envmapsaturation 1
	$envmaptint "[0.5 0.5 0.5]"
}
