VertexlitGeneric
{
	$basetexture models/rails/tunnel_rn1_1
	$bumpmap models/rails/tunnel_rn1_1_n
	
	$detail models/rails/tunnel_rn1_1_add1
	$detailblendmode 2
	$detailscale 1
	$detailblendfactor 1
	
	$color2 "[1.3 1.1 1]"
}
