VertexlitGeneric
{
	$basetexture models/rails/tunnel_dur_blue
	$bumpmap models/rails/tunnel_dur_n
	$phong 1
    $phongboost 0.4
    $phongfresnelranges "[1 1 1]"
	$envmap env_cubemap
	$envmaptint "[0.05 0.05 0.05]"
	$rimlight 1
	$rimlightboost 1
}