VertexlitGeneric
{
	$basetexture models/rails/tunnel_rn1_1
	$bumpmap models/rails/tunnel_rn1_1_n
	
	$detail models/rails/tunnel_rn1_1_add1
	$detailblendmode 2
	$detailscale 1
	$detailblendfactor .3
	
	$color2 "[1.2 1.05 1]"
}
