VertexlitGeneric
{
	$basetexture models/depot/depot_props2
	$bumpmap models/depot/depot_props2_n
	$phong 1
	$phongexponent 70
	$phongboost 0.2
	$phongfresnelranges "[1 1 1]"
	$envmap	env_cubemap
	$envmaptint "[.01 .01 .01]"
	$rimlight 1
	$rimlightboost .5
}
