VertexlitGeneric
{
	$basetexture models/depot/depot_gate_num_15
	$bumpmap models/emptyn
	$phong 1
	$phongexponent 70
	$phongboost 0.2
	$phongfresnelranges "[1 1 1]"
	$envmap	env_cubemap
	$envmaptint "[.01 .01 .01]"
}