VertexlitGeneric
{
	$basetexture models/depot/depot_outside_crane
	$bumpmap models/depot/depot_outside_crane_n
	$phong 1
	$phongexponent 70
	$phongboost 0.2
	$phongfresnelranges "[1 1 1]"
	$envmap	env_cubemap
	$envmaptint "[.02 .02 .02]"
	$rimlight 1
	$rimlightboost .2
	$detail detail\noise_detail_01 
	$detailscale 32
	$detailblendfactor 0.1
	$detailblendmode 0
}
