VertexLitGeneric
{
	$basetexture depot/depot_tiles1
	$basetexturetransform "center .5 .5 scale 3 1.5 rotate 0 translate 0 0"
	$bumpmap depot/depot_tiles1_n
	$surfaceprop Concrete
	
	$envmap env_cubemap
	$envmaptint "[.25 .25 .25]"
	$fresnelreflection 1
	$envmapcontrast .5
	
	$detail gm_construct/grass_clouds
	$detailscale 0.1
	$detailblendfactor .3
}