VertexlitGeneric
{
	$basetexture models/depot/sarai
	$bumpmap models/depot/sarai_n
	$phong 1
	$phongexponent 100
	$phongboost 1
	$phongfresnelranges	"[0.5 0.5 0.5]"
	$envmap "env_cubemap"
	$normalmapalphaenvmapmask 1
	$envmaptint "[0.05 0.05 0.05]"
}
