"VertexlitGeneric"
{
	"$basetexture" "models/depot/telega"
	$bumpmap models/depot/telega_n
	"$surfaceprop" "Metal"
  $phong 1
  $phongexponent   70
  $phongboost    0.7
  $phongfresnelranges  "[0.5 0.5 0.5]"

}
