LightmappedGeneric
{
	$basetexture models/stations/moskovskaya/moskovskaya_platform
	$bumpmap models/stations/moskovskaya/moskovskaya_platform_n
	
	$envmap env_cubemap
	$envmaptint "[0.5 0.5 0.5]"
	$normalmapalphaenvmapmask 1
	$fresnelreflection 0
	
	$detail detail\metal_detail_01
	$detailscale 4
	$detailblendfactor .5
	$detailblendmode 0
}