LightmappedGeneric
{
	$basetexture models/stations/oktyabrskaya/oktyabrskaya_walls6
	$bumpmap models/stations/oktyabrskaya/oktyabrskaya_walls6_n
	$envmap env_cubemap
	$envmaptint "[0.3 0.3 0.3]"
	$fresnelreflection 0
}