LightmappedGeneric
{
	$basetexture models/stations/oktyabrskaya/oktyabrskaya_walls3
	$bumpmap models/emptyn
	$envmap env_cubemap
	$envmaptint "[0.5 0.5 0.5]"
	$normalmapalphaenvmapmask 1
	$fresnelreflection 0
	$selfillum 1
	$selfillummask models/stations/oktyabrskaya/oktyabrskaya_walls3
}