LightmappedGeneric
{
	$basetexture models/stations/pl_kolasa/pl_kolasa_platform1
	$bumpmap models/stations/oktyabrskaya/oktyabrskaya_platform1_n
	
	$envmap env_cubemap
	$envmaptint "[.7 .7 .7]"
	$normalmapalphaenvmapmask 1
	$fresnelreflection 0
	$envmapcontrast 1
	
	$detail detail\noise_detail_01 
	$detailscale 16
	$detailblendfactor 0.2
	$detailblendmode 0
	
}