LightmappedGeneric
{
	$basetexture models/stations/station_metal1
	$bumpmap models/stations/station_metal1_n
	$surfaceprop Metal
	$envmap env_cubemap
	$envmaptint "[.3 .3 .3]"
	$fresnelreflection 0
	
	$detail detail\metal_detail_01
	$detailscale .5
	$detailblendfactor .35
	$detailblendmode 0
}