LightmappedGeneric
{
	$basetexture models/stations/station_walls1
	$bumpmap models/stations/station_walls1_n
	$surfaceprop Metal
	$envmap env_cubemap
	$envmaptint "[.3 .3 .3]"
	$fresnelreflection 0
	
	$detail gm_construct/grass_clouds
	$detailscale 0.2
	$detailblendfactor 0.1
}