LightmappedGeneric
{
	$basetexture tunnels/tunnel6
	$bumpmap tunnels/tunnel1_n
	$surfaceprop Concrete
	$envmap env_cubemap
	$envmaptint "[0.2 0.2 0.2]"
	$fresnelreflection 0
	
	$detail detail\noise_detail_01 
	$detailscale 12
	$detailblendfactor 0.3
	$detailblendmode 0
	$reflectivity "[.01 .01 .01]"
}