LightmappedGeneric
{
	$basetexture tunnels/tunnel3
	$bumpmap tunnels/tunnel3_n
	$surfaceprop Concrete
	$detail detail\noise_detail_01 
	$detailscale 8
	$detailblendfactor 0.3
	$detailblendmode 0
	$reflectivity "[.01 .01 .01]"
}