LightmappedGeneric
{
	$basetexture tunnels/tunnel14
	$bumpmap tunnels/tunnel1_n
	$surfaceprop Concrete

	$detail detail\noise_detail_01 
	$detailscale 8
	$detailblendfactor 0.5
	$detailblendmode 0
	$reflectivity "[.01 .01 .01]"
}