LightmappedGeneric
{
	$basetexture tunnels/tunnel2_2
	$bumpmap tunnels/tunnel2_n
	$surfaceprop Concrete
	
	$detail detail\noise_detail_01 
	$detailscale 8
	$detailblendfactor 0.3
	$detailblendmode 0
	$reflectivity "[.01 .01 .01]"
}