"VertexLitGeneric"
{
	$basetexture models/stations/glass
	$allowalphatocoverage 1
	$alphatest 1
	$phong 1
	$phongexponent 64
	$phongboost	16
	$phongfresnelranges	"[0.1 0.1 0.1]"
	
	$bumpmap models/stations/glass_n
	$envmap env_cubemap
	$envmapcontrast 1
	$envmaptint "[0.25 0.25 0.25]"
	$nocull 1
}