"VertexlitGeneric"
{
	$basetexture models/stations/pristanz_props/pristanz_doors1
	$bumpmap models/stations/pristanz_props/pristanz_doors1_n
	$phong 1
    $phongboost 1
    $phongfresnelranges "[1 1 1]"
	$rimlight 1
	$rimlightboost 1
	$envmap "env_cubemap"
	$envmaptint "[0.02 0.02 0.02]"
}
