"VertexlitGeneric"
{
	$basetexture models/stations/pristanz_props/station_pv60
	$bumpmap models/stations/pristanz_props/station_pv60_n
	$phong 1
    $phongboost .4
    $phongfresnelranges "[1 1 1]"
	$rimlight 1
	$rimlightboost 1
	$envmap "env_cubemap"
	$envmaptint "[0.05 0.05 0.05]"
}
