"VertexlitGeneric"
{
	$basetexture models/stations/pristanz_props/station_tables1_white
	$bumpmap models/stations/pristanz_props/station_tables1_n
	$phong 1
    $phongboost 1
    $phongfresnelranges "[1 1 1]"
	$rimlight 1
	$rimlightboost 1
	$envmap "env_cubemap"
	$envmaptint "[0.1 0.1 0.1]"
}
