"VertexlitGeneric"
{
	$basetexture models/stations/oktyabrskaya/oktyabrskaya_titles
	$bumpmap models/stations/oktyabrskaya/oktyabrskaya_titles_n
	$phong 1
	$phongexponent  100
	$phongboost .1
	$phongfresnelranges "[1 1 1]"
	$envmap env_cubemap
	$envmaptint "[.1 .1 .1]"
	$rimlight 1
	$rimlightboost .5
}
