"VertexlitGeneric"
{
	$basetexture models/stations/oktyabrskaya/oktyabrskaya_columns1
	$bumpmap models/stations/oktyabrskaya/oktyabrskaya_columns_n
	$phong 1
	$phongexponent  100
	$phongboost .1
	$phongfresnelranges "[1 1 1]"
	$envmap env_cubemap
	$envmaptint "[.02 .02 .02]"	
	$rimlight 1
	$rimlightboost .5
}
