"VertexlitGeneric"
{
	$basetexture models/stations/park_ch/park_ch_main3
	$bumpmap models/stations/park_ch/park_ch_main3_n
	$phong 1
	$phongexponent 300
	$phongboost 0.5
	$phongfresnelranges "[1 1 1]"
	$rimlight 1
	$rimlightboost .2
	$selfillum 1
	$selfillummask models/stations/park_ch/park_ch_main3
	//$selfillummask models/gray25
}
