"VertexlitGeneric"
{
	$basetexture models/stations/moskovskaya/moskovskaya_titles
	$bumpmap models/stations/moskovskaya/moskovskaya_titles_n
	$phong 1
	$phongexponent 200
	$phongboost 1
	$phongfresnelranges "[1 1 1]"
	$envmap "env_cubemap"
	$normalmapalphaenvmapmask 1
	$envmaptint "[.05 .05 .05]"
}
