"VertexlitGeneric"
{
	$basetexture models/stations/moskovskaya/moskovskaya_walls1
	$bumpmap models/stations/moskovskaya/moskovskaya_walls1_n
	$phong 1
	$phongexponent 400
	$phongboost 0.4
	$phongfresnelranges "[1 1 1]"
}
