"VertexlitGeneric"
{
	$basetexture models/stations/moskovskaya/moskovskaya_columns1
	$bumpmap models/stations/moskovskaya/moskovskaya_columns_n
	$phong 1
	$phongexponent 200
	$phongboost 2
	$phongfresnelranges "[1 1 1]"
	$envmap "env_cubemap"
	$normalmapalphaenvmapmask 1
	$envmaptint "[0.35 0.35 0.35]"
	$selfillum 1
	$selfillummask models/gray25
}
