"VertexlitGeneric"
{
	$basetexture models/stations/moskovskaya/moskovskaya_walls2
	$bumpmap models/stations/moskovskaya/moskovskaya_walls2_n
	$envmap env_cubemap
	$envmaptint "[.05 .05 .05]"
	$normalmapalphaenvmapmask 1
	$fresnelreflection 0
	$phong 1
	$rimlight 1
	$rimlightboost .25
}
