"VertexlitGeneric"
{
	$basetexture models/stations/institut/institut_main1
	$bumpmap models/stations/institut/institut_main1_n
	$phong 1
	$phongexponent 600
	$phongboost 1
	$phongfresnelranges "[1 1 1]"
	//$envmap env_cubemap
	//$envmaptint "[1 1 1]"
	//$envmapmask models/stations/institut/institut_main1_env
	$selfillum 1
	$selfillummask models/stations/institut/institut_main1_si
}
