"VertexlitGeneric"
{
	$basetexture models/stations/institut/institut_glass3
	$bumpmap models/stations/institut/institut_glass3_n
	$phong 1
	$phongexponent 500
	$phongboost 1
	$phongfresnelranges "[1 1 1]"
}
