VertexlitGeneric
{
	$basetexture models/mn_r/mn_r_m4
	$bumpmap models/mn_r/mn_r_m_n
	
	$phong 1
	$phongexponent 25
	$phongboost	15
	$phongfresnelranges	"[.5 1 2]"
	
	//$envmap "env_cubemap"
	//$normalmapalphaenvmapmask 1
	//$envmaptint "[.5 .5 .5]"
}
