VertexlitGeneric
{
	$basetexture models/mn_r/mn_t_rn2_t1
	$bumpmap models/mn_r/mn_t_rn2_t_n
	
	$color2 "[.9 .9 .9]"
	
	$detail detail\noise_detail_01 
	$detailscale 16
	$detailblendfactor 0.25
	$detailblendmode 0
}
