VertexlitGeneric
{
	$basetexture models/stations/akadem_nauk/akadem_nauk_columns1
	$bumpmap models/stations/akadem_nauk/akadem_nauk_columns_n
	$phong 1
	$phongexponent 300
	$phongboost 0.5
	$phongfresnelranges "[1 1 1]"
	$envmap "env_cubemap"
	$normalmapalphaenvmapmask 1
	$envmaptint "[0.15 0.15 0.15]"
	$selfillum 1
	$selfillummask models/stations/akadem_nauk/akadem_nauk_columns1_si
	$rimlight 1
	$rimlightboost 1
}
