VertexlitGeneric
{
	$basetexture models/stations/akadem_nauk/akadem_nauk_main1
	$bumpmap models/stations/akadem_nauk/akadem_nauk_main1_n
	$selfillum 1
	$selfillummask models/stations/akadem_nauk/akadem_nauk_main1_si
}
