VertexlitGeneric
{
	$basetexture models/stations/akadem_nauk/akadem_nauk_main2
	$bumpmap models/stations/akadem_nauk/akadem_nauk_main2_n
	$selfillum 1
	$selfillummask models/stations/akadem_nauk/akadem_nauk_main2_si
}
