VertexlitGeneric
{
	$basetexture models/stations/institut/institut_main2
	$bumpmap models/emptyn
	$selfillum 1
	$selfillummask models/stations/institut/institut_main2
	$phong 1
	$rimlight 1
	$rimlightboost .25
}
