"VertexlitGeneric"
{
	$basetexture models/stations/station_cab1
	$bumpmap models/stations/station_cab1_n
	$phong 1
    $phongboost 1
    $phongfresnelranges "[1 1 1]"
	$rimlight 1
	$rimlightboost 1
}
