"VertexlitGeneric"
{
	$basetexture models/stations/station_pult_dsp2_pob
	$bumpmap models/stations/station_pult_dsp2_n
	$phong 1
    $phongboost .3
    $phongfresnelranges "[1 1 1]"
	$rimlight 1
	$rimlightboost 1
}
