"VertexlitGeneric"
{
	$basetexture models/stations/zabor1
	$bumpmap models/stations/zabor1_n
	$phong 1
	$phongexponent 20
	$phongboost 10
	$phongfresnelranges "[1 1 1]"
	$envmap "env_cubemap"
	$normalmapalphaenvmapmask 1
}
