LightmappedGeneric
{
	$basetexture depot/concrete_floor1
	$basetexturetransform "center .5 .5 scale 1.5 1.5 rotate 8 translate 0 0"
	$bumpmap depot/concrete_floor1_n
	$surfaceprop Concrete
	
	$envmap env_cubemap
	$envmaptint "[.25 .25 .25]"
	$fresnelreflection 0
	$envmapcontrast .5
	
	$detail gm_construct/grass_clouds
	$detailscale 0.2
	$detailblendfactor .3
}