LightmappedGeneric
{
	$basetexture depot/grass1
	$basetexture2 depot/grass1
	$basetexturetransform "center .5 .5 scale 2 2 rotate 12 translate 0 0"
	$surfaceprop Dirt
	$surfaceprop2 Dirt
	
	%detailtype minsk01
	
	"$detail" "gm_construct/grass_clouds"
	"$detailscale" "0.1"
}