LightmappedGeneric
{
	$basetexture depot/wall_paint_b
	$basetexturetransform "center .5 .5 scale 2 2 rotate 10 translate 0 0"
	$surfaceprop Concrete
	$bumpmap depot/wall_paint_n
	$envmap env_cubemap
	$envmaptint "[0.1 0.1 0.1]"
	$fresnelreflection 0
}