"VertexlitGeneric"
{
	$basetexture models/stations/pl_kolasa/pl_kolasa_titles
	$bumpmap models/stations/pl_kolasa/pl_kolasa_titles_n
	$phong 1
	$phongexponent  100
	$phongboost .1
	$phongfresnelranges "[1 1 1]"
	$envmap models/stations/pl_kolasa/pl_kolasa_cubemap1
	$envmaptint "[.01 .01 .01]"
	$rimlight 1
	$rimlightboost .5
	$selfillum 1
	$selfillummask models/white
}
