VertexlitGeneric
{
	$basetexture models/stations/pl_kolasa/pl_kolasa_main1
	$bumpmap models/stations/pl_kolasa/pl_kolasa_main1_n
	$phong 0
	$selfillum 1
	$selfillummask models/white
	$color2 "[1.1 1.05 1]"
}
