"VertexlitGeneric"
{
	"$basetexture" "models/mn_r/sp6m/sp6m229"
	"$surfaceprop" "Metal"
	$bumpmap				"models/mn_r/sp6m/sp6m_n"
	$phong 1
    $phongboost    0.2
    $phongfresnelranges  "[1 1 1]"
	$alphatest 1
}
